…
# Data Manipulation

## Problem 1: Use logical operators to find flights that:


```r
# Flights with an arrival delay of two or more hours (> 120 minutes)

flights %>% 
  filter(arr_delay >= 120)
```

```
## # A tibble: 10,200 × 19
##     year month   day dep_time sched_dep_time dep_delay arr_time sched_arr_time
##    <int> <int> <int>    <int>          <int>     <dbl>    <int>          <int>
##  1  2013     1     1      811            630       101     1047            830
##  2  2013     1     1      848           1835       853     1001           1950
##  3  2013     1     1      957            733       144     1056            853
##  4  2013     1     1     1114            900       134     1447           1222
##  5  2013     1     1     1505           1310       115     1638           1431
##  6  2013     1     1     1525           1340       105     1831           1626
##  7  2013     1     1     1549           1445        64     1912           1656
##  8  2013     1     1     1558           1359       119     1718           1515
##  9  2013     1     1     1732           1630        62     2028           1825
## 10  2013     1     1     1803           1620       103     2008           1750
## # ℹ 10,190 more rows
## # ℹ 11 more variables: arr_delay <dbl>, carrier <chr>, flight <int>,
## #   tailnum <chr>, origin <chr>, dest <chr>, air_time <dbl>, distance <dbl>,
## #   hour <dbl>, minute <dbl>, time_hour <dttm>
```

```r
# Flights that flew to Houston (IAH or HOU)

flights %>% 
  filter(dest == "IAH"| dest == "HOU")
```

```
## # A tibble: 9,313 × 19
##     year month   day dep_time sched_dep_time dep_delay arr_time sched_arr_time
##    <int> <int> <int>    <int>          <int>     <dbl>    <int>          <int>
##  1  2013     1     1      517            515         2      830            819
##  2  2013     1     1      533            529         4      850            830
##  3  2013     1     1      623            627        -4      933            932
##  4  2013     1     1      728            732        -4     1041           1038
##  5  2013     1     1      739            739         0     1104           1038
##  6  2013     1     1      908            908         0     1228           1219
##  7  2013     1     1     1028           1026         2     1350           1339
##  8  2013     1     1     1044           1045        -1     1352           1351
##  9  2013     1     1     1114            900       134     1447           1222
## 10  2013     1     1     1205           1200         5     1503           1505
## # ℹ 9,303 more rows
## # ℹ 11 more variables: arr_delay <dbl>, carrier <chr>, flight <int>,
## #   tailnum <chr>, origin <chr>, dest <chr>, air_time <dbl>, distance <dbl>,
## #   hour <dbl>, minute <dbl>, time_hour <dttm>
```

```r
# Flights operated by United (`UA`), American (`AA`), or Delta (`DL`)

flights %>% 
  filter(carrier %in% c("UA", "AA", "DL"))
```

```
## # A tibble: 139,504 × 19
##     year month   day dep_time sched_dep_time dep_delay arr_time sched_arr_time
##    <int> <int> <int>    <int>          <int>     <dbl>    <int>          <int>
##  1  2013     1     1      517            515         2      830            819
##  2  2013     1     1      533            529         4      850            830
##  3  2013     1     1      542            540         2      923            850
##  4  2013     1     1      554            600        -6      812            837
##  5  2013     1     1      554            558        -4      740            728
##  6  2013     1     1      558            600        -2      753            745
##  7  2013     1     1      558            600        -2      924            917
##  8  2013     1     1      558            600        -2      923            937
##  9  2013     1     1      559            600        -1      941            910
## 10  2013     1     1      559            600        -1      854            902
## # ℹ 139,494 more rows
## # ℹ 11 more variables: arr_delay <dbl>, carrier <chr>, flight <int>,
## #   tailnum <chr>, origin <chr>, dest <chr>, air_time <dbl>, distance <dbl>,
## #   hour <dbl>, minute <dbl>, time_hour <dttm>
```

```r
# Flights that departed in summer (July, August, and September)
  
flights %>% 
  filter(month %in% c(7:9))
```

```
## # A tibble: 86,326 × 19
##     year month   day dep_time sched_dep_time dep_delay arr_time sched_arr_time
##    <int> <int> <int>    <int>          <int>     <dbl>    <int>          <int>
##  1  2013     7     1        1           2029       212      236           2359
##  2  2013     7     1        2           2359         3      344            344
##  3  2013     7     1       29           2245       104      151              1
##  4  2013     7     1       43           2130       193      322             14
##  5  2013     7     1       44           2150       174      300            100
##  6  2013     7     1       46           2051       235      304           2358
##  7  2013     7     1       48           2001       287      308           2305
##  8  2013     7     1       58           2155       183      335             43
##  9  2013     7     1      100           2146       194      327             30
## 10  2013     7     1      100           2245       135      337            135
## # ℹ 86,316 more rows
## # ℹ 11 more variables: arr_delay <dbl>, carrier <chr>, flight <int>,
## #   tailnum <chr>, origin <chr>, dest <chr>, air_time <dbl>, distance <dbl>,
## #   hour <dbl>, minute <dbl>, time_hour <dttm>
```

```r
# Flights that arrived more than two hours late, but didn't leave late

flights %>% 
  filter(arr_delay > 120 & dep_delay <= 0) %>% 
  select(year:day, carrier, flight, arr_delay, dep_delay)
```

```
## # A tibble: 29 × 7
##     year month   day carrier flight arr_delay dep_delay
##    <int> <int> <int> <chr>    <int>     <dbl>     <dbl>
##  1  2013     1    27 MQ        3728       124        -1
##  2  2013    10     7 EV        5181       130         0
##  3  2013    10     7 AA        1151       124        -2
##  4  2013    10    16 B6           3       122        -3
##  5  2013    11     1 VX         399       194        -2
##  6  2013     3    18 UA         389       140        -3
##  7  2013     4    17 MQ        4540       124        -5
##  8  2013     4    18 AA         707       179        -2
##  9  2013     4    18 AA        2083       143        -5
## 10  2013     5    22 MQ        4674       127        -3
## # ℹ 19 more rows
```

```r
# Flights delayed by at least an hour, but made up over 30 minutes in flight

flights %>%
  filter(dep_delay >= 60 & arr_delay <= dep_delay + 30) %>% 
  select(year:day, carrier, flight, arr_delay, dep_delay)
```

```
## # A tibble: 24,854 × 7
##     year month   day carrier flight arr_delay dep_delay
##    <int> <int> <int> <chr>    <int>     <dbl>     <dbl>
##  1  2013     1     1 AA         443        51        71
##  2  2013     1     1 MQ        3944       851       853
##  3  2013     1     1 UA         856       123       144
##  4  2013     1     1 UA        1086       145       134
##  5  2013     1     1 EV        4495        78        96
##  6  2013     1     1 MQ        4646        93        71
##  7  2013     1     1 B6         673        78        77
##  8  2013     1     1 EV        4497       127       115
##  9  2013     1     1 B6         525       125       105
## 10  2013     1     1 B6         705       115       122
## # ℹ 24,844 more rows
```
…
```r
plane_depts <- left_join(tailnum_depts, planes, "tailnum") %>%
                filter(!is.na(tailnum))

plane_depts %>%
  arrange(desc(count))
```

```
## # A tibble: 4,043 × 10
##    tailnum count  year type        manufacturer model engines seats speed engine
##    <chr>   <int> <int> <chr>       <chr>        <chr>   <int> <int> <int> <chr> 
##  1 N725MQ    575    NA <NA>        <NA>         <NA>       NA    NA    NA <NA>  
##  2 N722MQ    513    NA <NA>        <NA>         <NA>       NA    NA    NA <NA>  
##  3 N723MQ    507    NA <NA>        <NA>         <NA>       NA    NA    NA <NA>  
##  4 N711MQ    486  1976 Fixed wing… GULFSTREAM … G115…       2    22    NA Turbo…
##  5 N713MQ    483    NA <NA>        <NA>         <NA>       NA    NA    NA <NA>  
##  6 N258JB    427  2006 Fixed wing… EMBRAER      ERJ …       2    20    NA Turbo…
##  7 N298JB    407  2009 Fixed wing… EMBRAER      ERJ …       2    20    NA Turbo…
##  8 N353JB    404  2012 Fixed wing… EMBRAER      ERJ …       2    20    NA Turbo…
##  9 N351JB    402  2012 Fixed wing… EMBRAER      ERJ …       2    20    NA Turbo…
## 10 N735MQ    396    NA <NA>        <NA>         <NA>       NA    NA    NA <NA>  
## # ℹ 4,033 more rows
```

```r
# Finding the plane with greatest number of flights, and more than 50 seats

plane_depts %>% 
  filter(seats > 50, na.rm = TRUE) %>%
  arrange(desc(count))
```

```
## # A tibble: 3,200 × 10
##    tailnum count  year type        manufacturer model engines seats speed engine
##    <chr>   <int> <int> <chr>       <chr>        <chr>   <int> <int> <int> <chr> 
##  1 N328AA    393  1986 Fixed wing… BOEING       767-…       2   255    NA Turbo…
##  2 N338AA    388  1987 Fixed wing… BOEING       767-…       2   255    NA Turbo…
##  3 N327AA    387  1986 Fixed wing… BOEING       767-…       2   255    NA Turbo…
##  4 N335AA    385  1987 Fixed wing… BOEING       767-…       2   255    NA Turbo…
##  5 N323AA    357  1986 Fixed wing… BOEING       767-…       2   255    NA Turbo…
##  6 N319AA    354  1985 Fixed wing… BOEING       767-…       2   255    NA Turbo…
##  7 N336AA    353  1987 Fixed wing… BOEING       767-…       2   255    NA Turbo…
##  8 N329AA    344  1987 Fixed wing… BOEING       767-…       2   255    NA Turbo…
##  9 N789JB    332  2011 Fixed wing… AIRBUS       A320…       2   200    NA Turbo…
## 10 N324AA    328  1986 Fixed wing… BOEING       767-…       2   255    NA Turbo…
## # ℹ 3,190 more rows
```
…
```r
# Five most common manufacturers: Boeing, Airbus, Bombadier, Embraer, McDonnell

planes %>%
  group_by(manufacturer) %>% 
  summarise(number_of_planes = n()) %>% 
  arrange(desc(number_of_planes))
```

```
## # A tibble: 35 × 2
##    manufacturer                  number_of_planes
##    <chr>                                    <int>
##  1 BOEING                                    1630
##  2 AIRBUS INDUSTRIE                           400
##  3 BOMBARDIER INC                             368
##  4 AIRBUS                                     336
##  5 EMBRAER                                    299
##  6 MCDONNELL DOUGLAS                          120
##  7 MCDONNELL DOUGLAS AIRCRAFT CO              103
##  8 MCDONNELL DOUGLAS CORPORATION               14
##  9 CANADAIR                                     9
## 10 CESSNA                                       9
## # ℹ 25 more rows
```
…
> The oldest plane to depart from NYC in 2013 was manufactured in 1956!


```r
# How many airplanes that flew from New York City are included in the planes table?

planes_dept_nyc # Values with nulls here were not included in the planes table, hence when they were joined from the flights table, they didn't receive values for manufacturer and year. So, we simply count them.
```

```
## # A tibble: 4,044 × 3
##    tailnum manufacturer      year
##    <chr>   <chr>            <int>
##  1 N14228  BOEING            1999
##  2 N24211  BOEING            1998
##  3 N619AA  BOEING            1990
##  4 N804JB  AIRBUS            2012
##  5 N668DN  BOEING            1991
##  6 N39463  BOEING            2012
##  7 N516JB  AIRBUS INDUSTRIE  2000
##  8 N829AS  CANADAIR          1998
##  9 N593JB  AIRBUS            2004
## 10 N3ALAA  <NA>                NA
## # ℹ 4,034 more rows
```
…
> 722 planes that flew from NYC are missing from the planes table. That's 17.89%, not great!

## Problem 7: Use the `nycflights13` to answer the following questions:


```r
# First, it's important to understand if NA arr_delay values = 0, or cancelled flights. 

flights %>% 
  group_by(origin, month) %>% 
  filter(is.na(arr_delay)) # Looks like they're cancelled, I will remove them in the following steps. 
```

```
## # A tibble: 9,430 × 19
## # Groups:   origin, month [36]
##     year month   day dep_time sched_dep_time dep_delay arr_time sched_arr_time
##    <int> <int> <int>    <int>          <int>     <dbl>    <int>          <int>
##  1  2013     1     1     1525           1530        -5     1934           1805
##  2  2013     1     1     1528           1459        29     2002           1647
##  3  2013     1     1     1740           1745        -5     2158           2020
##  4  2013     1     1     1807           1738        29     2251           2103
##  5  2013     1     1     1939           1840        59       29           2151
##  6  2013     1     1     1952           1930        22     2358           2207
##  7  2013     1     1     2016           1930        46       NA           2220
##  8  2013     1     1       NA           1630        NA       NA           1815
##  9  2013     1     1       NA           1935        NA       NA           2240
## 10  2013     1     1       NA           1500        NA       NA           1825
## # ℹ 9,420 more rows
## # ℹ 11 more variables: arr_delay <dbl>, carrier <chr>, flight <int>,
## #   tailnum <chr>, origin <chr>, dest <chr>, air_time <dbl>, distance <dbl>,
## #   hour <dbl>, minute <dbl>, time_hour <dttm>
```
…
flights %>% 
  group_by(origin, month) %>% 
  filter(!is.na(arr_delay)) %>% # Removing nulls as discussed
  summarise(median_arr_delay = median(arr_delay)) 
```

```
## `summarise()` has grouped output by 'origin'. You can override using the
## `.groups` argument.
```

```
## # A tibble: 36 × 3
## # Groups:   origin [3]
##    origin month median_arr_delay
##    <chr>  <int>            <dbl>
##  1 EWR        1                0
##  2 EWR        2               -2
##  3 EWR        3               -4
##  4 EWR        4               -1
##  5 EWR        5               -6
##  6 EWR        6               -1
##  7 EWR        7               -2
##  8 EWR        8               -5
##  9 EWR        9              -13
## 10 EWR       10               -6
## # ℹ 26 more rows
```
…
age_gaps %>% 
  group_by(movie_name, release_year) %>% # I also grouped by release year, just in case there are repeated movie names
  summarise(love_interests = n()) %>% 
  arrange(desc(love_interests))
```

```
## `summarise()` has grouped output by 'movie_name'. You can override using the
## `.groups` argument.
```

```
## # A tibble: 838 × 3
## # Groups:   movie_name [830]
##    movie_name                  release_year love_interests
##    <chr>                              <dbl>          <int>
##  1 Love Actually                       2003              7
##  2 The Family Stone                    2007              6
##  3 A View to a Kill                    1985              5
##  4 He's Just Not That Into You         2009              5
##  5 Mona Lisa Smile                     2003              5
##  6 American Pie                        1999              4
##  7 Boogie Nights                       1997              4
##  8 Closer                              2004              4
##  9 Pushing Tin                         1999              4
## 10 Sex and the City                    2008              4
## # ℹ 828 more rows
```
…
long_names <- data.frame(c(age_gaps$actor_1_name, age_gaps$actor_2_name))

colnames(long_names) <- "names"

# Now I count for the frequency of each name

long_names %>%
  group_by(names) %>% 
  summarise(count = n()) %>% 
  arrange(desc(count))
```

```
## # A tibble: 1,031 × 2
##    names              count
##    <chr>              <int>
##  1 Keanu Reeves          27
##  2 Adam Sandler          20
##  3 Leonardo DiCaprio     17
##  4 Roger Moore           17
##  5 Sean Connery          17
##  6 Keira Knightley       14
##  7 Pierce Brosnan        14
##  8 Harrison Ford         13
##  9 Reese Witherspoon     13
## 10 Scarlett Johansson    13
## # ℹ 1,021 more rows
```
…
